{"page": 1, "total_results": 10000, "total_pages": 500, "results": [{"popularity": 513.129, "vote_count": 2261, "video": false, "poster_path": "/xBHvZcjRiWyobQ9kxBhO6B2dtRI.jpg", "id": 419704, "adult": false, "backdrop_path": "/5BwqwxMEjeFtdknRV792Svo0K1v.jpg", "original_language": "en", "original_title": "Ad Astra", "genre_ids": [12, 18, 9648, 878, 53], "title": "Ad Astra", "vote_average": 6, "overview": "The near future, a time when both hope and hardships drive humanity to look to the stars and beyond. While a mysterious phenomenon menaces to destroy life on planet Earth, astronaut Roy McBride undertakes a mission across the immensity of space and its many perils to uncover the truth about a lost expedition that decades before boldly faced emptiness and silence in search of the unknown.", "release_date": "2019-09-17"}, {"popularity": 360.971, "vote_count": 359, "video": false, "poster_path": "/z7FCF54Jvzv9Anxyf82QeqFXXOO.jpg", "id": 495764, "adult": false, "backdrop_path": "/uozb2VeD87YmhoUP1RrGWfzuCrr.jpg", "original_language": "en", "original_title": "Birds of Prey (and the Fantabulous Emancipation of One Harley Quinn)", "genre_ids": [28, 35, 80], "title": "Birds of Prey (and the Fantabulous Emancipation of One Harley Quinn)", "vote_average": 7.1, "overview": "After splitting with the Joker, Harley Quinn joins superheroes Black Canary, Huntress and Renee Montoya to save a young girl from an evil crime lord.", "release_date": "2020-02-05"}, {"popularity": 255.632, "vote_count": 271, "video": false, "poster_path": "/3Nt3v1uzUgfSuVARD1AnI9g9Zl9.jpg", "id": 448119, "adult": false, "backdrop_path": "/lG802rseTZcN9mtLsQPVfApEVzM.jpg", "original_language": "en", "original_title": "Dolittle", "genre_ids": [28, 12, 35, 14, 10751], "title": "Dolittle", "vote_average": 6.4, "overview": "After losing his wife seven years earlier, the eccentric Dr. John Dolittle, famed doctor and veterinarian of Queen Victoria\u2019s England, hermits himself away behind the high walls of Dolittle Manor with only his menagerie of exotic animals for company. But when the young queen falls gravely ill, a reluctant Dolittle is forced to set sail on an epic adventure to a mythical island in search of a cure, regaining his wit and courage as he crosses old adversaries and discovers wondrous creatures.", "release_date": "2020-01-01"}, {"popularity": 222.58, "vote_count": 1580, "video": false, "poster_path": "/7GsM4mtM0worCtIVeiQt28HieeN.jpg", "id": 515001, "adult": false, "backdrop_path": "/agoBZfL1q5G79SD0npArSlJn8BH.jpg", "original_language": "en", "original_title": "Jojo Rabbit", "genre_ids": [35, 18, 10752], "title": "Jojo Rabbit", "vote_average": 8.1, "overview": "A World War II satire that follows a lonely German boy whose world view is turned upside down when he discovers his single mother is hiding a young Jewish girl in their attic. Aided only by his idiotic imaginary friend, Adolf Hitler, Jojo must confront his blind nationalism.", "release_date": "2019-10-18"}, {"popularity": 232.737, "vote_count": 3384, "video": false, "poster_path": "/7IiTTgloJzvGI1TAYymCfbfl3vT.jpg", "id": 496243, "adult": false, "backdrop_path": "/TU9NIjwzjoKPwQHoHshkFcQUCG.jpg", "original_language": "ko", "original_title": "\uae30\uc0dd\ucda9", "genre_ids": [35, 18, 53], "title": "Parasite", "vote_average": 8.6, "overview": "All unemployed, Ki-taek's family takes peculiar interest in the wealthy and glamorous Parks for their livelihood until they get entangled in an unexpected incident.", "release_date": "2019-05-30"}, {"popularity": 197.27, "vote_count": 2319, "video": false, "poster_path": "/iZf0KyrE25z1sage4SYFLCCrMi9.jpg", "id": 530915, "adult": false, "backdrop_path": "/2WgieNR1tGHlpJUsolbVzbUbE1O.jpg", "original_language": "en", "original_title": "1917", "genre_ids": [28, 18, 10752], "title": "1917", "vote_average": 8.1, "overview": "At the height of the First World War, two young British soldiers must cross enemy territory and deliver a message that will stop a deadly attack on hundreds of soldiers.", "release_date": "2019-12-10"}, {"popularity": 190.653, "vote_count": 8896, "video": false, "poster_path": "/udDclJoHjfjb8Ekgsd4FDteOkCU.jpg", "id": 475557, "adult": false, "backdrop_path": "/n6bUvigpRFqSwmPp1m2YADdbRBc.jpg", "original_language": "en", "original_title": "Joker", "genre_ids": [80, 18, 53], "title": "Joker", "vote_average": 8.3, "overview": "During the 1980s, a failed stand-up comedian is driven insane and turns to a life of crime and chaos in Gotham City while becoming an infamous psychopathic crime figure.", "release_date": "2019-10-02"}, {"popularity": 183.587, "vote_count": 1912, "video": false, "poster_path": "/pThyQovXQrw2m0s9x82twj48Jq4.jpg", "id": 546554, "adult": false, "backdrop_path": "/AbRYlvwAKHs0YuyNO6NX9ofq4l6.jpg", "original_language": "en", "original_title": "Knives Out", "genre_ids": [35, 80, 18, 9648, 53], "title": "Knives Out", "vote_average": 7.8, "overview": "When renowned crime novelist Harlan Thrombey is found dead at his estate just after his 85th birthday, the inquisitive and debonair Detective Benoit Blanc is mysteriously enlisted to investigate. From Harlan's dysfunctional family to his devoted staff, Blanc sifts through a web of red herrings and self-serving lies to uncover the truth behind Harlan's untimely death.", "release_date": "2019-11-27"}, {"popularity": 158.357, "vote_count": 709, "video": false, "poster_path": "/y95lQLnuNKdPAzw9F9Ab8kJ80c3.jpg", "id": 38700, "adult": false, "backdrop_path": "/upUy2QhMZEmtypPW3PdieKLAHxh.jpg", "original_language": "en", "original_title": "Bad Boys for Life", "genre_ids": [28, 80, 53], "title": "Bad Boys for Life", "vote_average": 6.5, "overview": "Marcus and Mike are forced to confront new threats, career changes, and midlife crises as they join the newly created elite team AMMO of the Miami police department to take down the ruthless Armando Armas, the vicious leader of a Miami drug cartel.", "release_date": "2020-01-15"}, {"popularity": 174.514, "vote_count": 250, "video": false, "poster_path": "/yJdeWaVXa2se9agI6B4mQunVYkB.jpg", "id": 449924, "adult": false, "backdrop_path": "/ekP6EVxL81lZ4ivcqPsoZ72rY0h.jpg", "original_language": "cn", "original_title": "\u8449\u554f4", "genre_ids": [28, 18, 36], "title": "Ip Man 4: The Finale", "vote_average": 6, "overview": "Following the death of his wife, Ip Man travels to San Francisco to ease tensions between the local kung fu masters and his star student, Bruce Lee, while searching for a better future for his son.", "release_date": "2019-12-20"}, {"popularity": 124.167, "vote_count": 1378, "video": false, "poster_path": "/6ApDtO7xaWAfPqfi2IARXIzj8QS.jpg", "id": 359724, "adult": false, "backdrop_path": "/n3UanIvmnBlH531pykuzNs4LbH6.jpg", "original_language": "en", "original_title": "Ford v Ferrari", "genre_ids": [28, 18], "title": "Ford v Ferrari", "vote_average": 7.7, "overview": "American car designer Carroll Shelby and the British-born driver Ken Miles work together to battle corporate interference, the laws of physics, and their own personal demons to build a revolutionary race car for Ford Motor Company and take on the dominating race cars of Enzo Ferrari at the 24 Hours of Le Mans in France in 1966.", "release_date": "2019-11-13"}, {"popularity": 120.518, "vote_count": 1363, "video": false, "poster_path": "/vqzNJRH4YyquRiWxCCOH0aXggHI.jpg", "id": 290859, "adult": false, "backdrop_path": "/riTANvQ8GKmQbgtC1ps3OfkU43A.jpg", "original_language": "en", "original_title": "Terminator: Dark Fate", "genre_ids": [28, 878], "title": "Terminator: Dark Fate", "vote_average": 6.2, "overview": "Decades after Sarah Connor prevented Judgment Day, a lethal new Terminator is sent to eliminate the future leader of the resistance. In a fight to save mankind, battle-hardened Sarah Connor teams up with an unexpected ally and an enhanced super soldier to stop the deadliest Terminator yet.", "release_date": "2019-10-23"}, {"popularity": 120.256, "vote_count": 2171, "video": false, "poster_path": "/pjeMs3yqRmFL3giJy4PMXWZTTPa.jpg", "id": 330457, "adult": false, "backdrop_path": "/xJWPZIYOEFIjZpBL7SVBGnzRYXp.jpg", "original_language": "en", "original_title": "Frozen II", "genre_ids": [12, 16, 10402, 10751], "title": "Frozen II", "vote_average": 7, "overview": "Elsa, Anna, Kristoff and Olaf head far into the forest to learn the truth about an ancient mystery of their kingdom.", "release_date": "2019-11-20"}, {"popularity": 102.619, "vote_count": 207, "video": false, "poster_path": "/b40ApfKDPoJYbWepUs7f09Y3fD.jpg", "id": 535292, "adult": false, "backdrop_path": "/5bUExJx4NLXJSaphRxO5VflaKdG.jpg", "original_language": "en", "original_title": "21 Bridges", "genre_ids": [28, 80, 18], "title": "21 Bridges", "vote_average": 6.5, "overview": "An embattled NYPD detective, is thrust into a citywide manhunt for a pair of cop killers after uncovering a massive and unexpected conspiracy. As the night unfolds, lines become blurred on who he is pursuing, and who is in pursuit of him.", "release_date": "2019-10-24"}, {"popularity": 108.253, "vote_count": 289, "video": false, "poster_path": "/hj8pyoNnynGeJTAbl7jcLZO8Uhx.jpg", "id": 522162, "adult": false, "backdrop_path": "/xjP88DFPCQ81mbZHXFscyYtGskT.jpg", "original_language": "en", "original_title": "Midway", "genre_ids": [28, 18, 36, 10752], "title": "Midway", "vote_average": 6.7, "overview": "The story of the Battle of Midway, and the leaders and soldiers who used their instincts, fortitude and bravery to overcome massive odds.", "release_date": "2019-11-06"}, {"popularity": 87.735, "vote_count": 765, "video": false, "poster_path": "/7gOozJufKJ9WjcIs38KEs08Iq3D.jpg", "id": 473033, "adult": false, "backdrop_path": "/uzvT6tYrU5SxfHe1ieimIGAqyFm.jpg", "original_language": "en", "original_title": "Uncut Gems", "genre_ids": [80, 18, 53], "title": "Uncut Gems", "vote_average": 7.3, "overview": "A charismatic New York City jeweler always on the lookout for the next big score makes a series of high-stakes bets that could lead to the windfall of a lifetime. Howard must perform a precarious high-wire act, balancing business, family, and encroaching adversaries on all sides in his relentless pursuit of the ultimate win.", "release_date": "2019-11-14"}, {"popularity": 76.002, "vote_count": 102, "video": false, "poster_path": "/MBiKqTsouYqAACLYNDadsjhhC0.jpg", "id": 486589, "adult": false, "backdrop_path": "/bga3i5jcejBekr2FCGJga1fYCh.jpg", "original_language": "en", "original_title": "Red Shoes and the Seven Dwarfs", "genre_ids": [16, 10749], "title": "Red Shoes and the Seven Dwarfs", "vote_average": 6.4, "overview": "Princes who have been turned into Dwarfs seek the red shoes of a lady in order to break the spell, although it will not be easy.", "release_date": "2019-07-25"}, {"popularity": 90.937, "vote_count": 20, "video": false, "poster_path": "/aQvJ5WPzZgYVDrxLX4R6cLJCEaQ.jpg", "id": 454626, "adult": false, "backdrop_path": "/tCUcf3oNWMW8kwAj3WC6CvIN5ah.jpg", "original_language": "en", "original_title": "Sonic the Hedgehog", "genre_ids": [28, 12, 35, 14, 878, 10751], "title": "Sonic the Hedgehog", "vote_average": 7.6, "overview": "Based on the global blockbuster videogame franchise from Sega, Sonic the Hedgehog tells the story of the world\u2019s speediest hedgehog as he embraces his new home on Earth. In this live-action adventure comedy, Sonic and his new best friend team up to defend the planet from the evil genius Dr. Robotnik and his plans for world domination.", "release_date": "2020-02-12"}, {"popularity": 90.257, "vote_count": 1039, "video": false, "poster_path": "/mSmiB8XjUnR1GSIljuCPGsk0cwX.jpg", "id": 331482, "adult": false, "backdrop_path": "/3uTxPIdVEXxHpsHOHdJC24QebBV.jpg", "original_language": "en", "original_title": "Little Women", "genre_ids": [18, 10749], "title": "Little Women", "vote_average": 8, "overview": "Four sisters come of age in America in the aftermath of the Civil War.", "release_date": "2019-12-25"}, {"popularity": 33.471, "vote_count": 3499, "video": false, "poster_path": "/5CGjlz2vyBhW5xHW4eNOZIdgzYq.jpg", "id": 390043, "adult": false, "backdrop_path": "/7KsqfXDECZMryX1Rv4RKsT7SIjQ.jpg", "original_language": "en", "original_title": "The Hitman's Bodyguard", "genre_ids": [28, 35], "title": "The Hitman's Bodyguard", "vote_average": 6.8, "overview": "The world top bodyguard gets a new client, a hit man who must testify at the International Court of Justice. They must put their differences aside and work together to make it to the trial on time.", "release_date": "2017-08-16"}]}